{
  "episodios": [
    {
      "nome": "Arkangel",
      "duracao": 52,
      "temporada": 4,
      "ordemEpisodio": 2,
      "thumbUrl": "https://occ-0-678-559.1.nflxso.net/art/9aeb1/6f3ebb055fe062f85dc3f84871bdafaee6a9aeb1.jpg",
      "id": 1
    },
    {
      "nome": "Be Right Back",
      "duracao": 49,
      "temporada": 2,
      "ordemEpisodio": 1,
      "thumbUrl": "https://occ-0-678-559.1.nflxso.net/art/c4d52/ba1d86466a8785d4ba73c76cbcebe2e6384c4d52.jpg",
      "id": 2
    },
    {
      "nome": "Black Museum",
      "duracao": 69,
      "temporada": 4,
      "ordemEpisodio": 6,
      "thumbUrl": "https://occ-0-678-559.1.nflxso.net/art/8b126/81549c8f021fc16cc4b8af1586ddc3b42d88b126.jpg",
      "id": 3
    },
    {
      "nome": "Crocodile",
      "duracao": 59,
      "temporada": 4,
      "ordemEpisodio": 3,
      "thumbUrl": "https://occ-0-678-559.1.nflxso.net/art/557ff/558fcde2fe704bf3eaa2ef3b26aad3d38e6557ff.jpg",
      "id": 4
    },
    {
      "nome": "The Entire History of You",
      "duracao": 49,
      "temporada": 1,
      "ordemEpisodio": 3,
      "thumbUrl": "https://occ-0-678-559.1.nflxso.net/art/400a9/57eb44a76c31274fef233131d583ab7bc97400a9.jpg",
      "id": 5
    },
    {
      "nome": "Fifteen Million Merits",
      "duracao": 62,
      "temporada": 1,
      "ordemEpisodio": 2,
      "thumbUrl": "https://occ-0-678-559.1.nflxso.net/art/7f50e/422928a1b9fa31b8a6c209b5df4d0915f557f50e.jpg",
      "id": 6
    },
    {
      "nome": "Hang the DJ",
      "duracao": 52,
      "temporada": 4,
      "ordemEpisodio": 4,
      "thumbUrl": "https://occ-0-678-559.1.nflxso.net/art/61a3e/02aa15ddad05aa972d53bcad460aa9d527f61a3e.jpg",
      "id": 7
    },
    {
      "nome": "Hated in the Nation",
      "duracao": 90,
      "temporada": 3,
      "ordemEpisodio": 6,
      "thumbUrl": "https://occ-0-678-559.1.nflxso.net/art/6a32d/88bf30eae1ae98b82b2e8081813e731ab0c6a32d.jpg",
      "id": 8
    },
    {
      "nome": "Men Against Fire",
      "duracao": 60,
      "temporada": 3,
      "ordemEpisodio": 5,
      "thumbUrl": "https://occ-0-678-559.1.nflxso.net/art/3940b/4c0badc82119dc19439e181f19234c074a83940b.jpg",
      "id": 9
    },
    {
      "nome": "Metalhead",
      "duracao": 41,
      "temporada": 4,
      "ordemEpisodio": 5,
      "thumbUrl": "https://occ-0-678-559.1.nflxso.net/art/ab4ae/08cf3abd7ddbef2acf82350fad6ee9ebfedab4ae.jpg",
      "id": 10
    },
    {
      "nome": "The National Anthem",
      "duracao": 44,
      "temporada": 1,
      "ordemEpisodio": 1,
      "thumbUrl": "https://occ-0-678-559.1.nflxso.net/art/68242/db5699eda3c612123fed50166ef9598b14068242.jpg",
      "id": 11
    },
    {
      "nome": "Nosedive",
      "duracao": 63,
      "temporada": 3,
      "ordemEpisodio": 1,
      "thumbUrl": "https://occ-0-678-559.1.nflxso.net/art/424df/608de21c697b612e00ef851052ccba447c7424df.jpg",
      "id": 12
    },
    {
      "nome": "Playtest",
      "duracao": 57,
      "temporada": 3,
      "ordemEpisodio": 2,
      "thumbUrl": "https://occ-0-678-559.1.nflxso.net/art/75542/cc3e412d8e66f8f4de0476eb37a23a63b0875542.jpg",
      "id": 13
    },
    {
      "nome": "San Junipero",
      "duracao": 61,
      "temporada": 3,
      "ordemEpisodio": 4,
      "thumbUrl": "https://occ-0-678-559.1.nflxso.net/art/69c24/ecfc0c072506955c45aa259293f1a2f5c9869c24.jpg",
      "id": 14
    },
    {
      "nome": "Shut Up and Dance",
      "duracao": 53,
      "temporada": 3,
      "ordemEpisodio": 3,
      "thumbUrl": "https://occ-0-678-559.1.nflxso.net/art/89271/5e8b75f4582aac66f780664a86025992b4a89271.jpg",
      "id": 15
    },
    {
      "nome": "USS Callister",
      "duracao": 77,
      "temporada": 4,
      "ordemEpisodio": 1,
      "thumbUrl": "https://occ-0-678-559.1.nflxso.net/art/8e8ef/c08aaf2ae6c9daa52320b41bef71a26921d8e8ef.jpg",
      "id": 16
    },
    {
      "nome": "The Waldo Moment",
      "duracao": 44,
      "temporada": 2,
      "ordemEpisodio": 3,
      "thumbUrl": "https://occ-0-678-559.1.nflxso.net/art/f5694/edcafaec5cd271131b245254c3106f7cd92f5694.jpg",
      "id": 17
    },
    {
      "nome": "White Bear",
      "duracao": 42,
      "temporada": 2,
      "ordemEpisodio": 2,
      "thumbUrl": "https://occ-0-678-559.1.nflxso.net/art/abf16/6090599058bb80cae847951d5273f00e874abf16.jpg",
      "id": 18
    },
    {
      "nome": "White Christmas",
      "duracao": 74,
      "temporada": 2,
      "ordemEpisodio": 4,
      "thumbUrl": "https://occ-0-678-559.1.nflxso.net/art/0b465/db9e48d9e27a99396cb9202601159454f6e0b465.jpg",
      "id": 19
    }
  ],
  "detalhes": [
    {
      "id": 1,
      "episodioId": 1,
      "notaImdb": 7.3,
      "sinopse": "Preocupada com a segurança da filha, Marie recorre a um dispositivo de última geração para monitorar sua localização - e muitas outras coisas.",
      "dataEstreia": "2017-12-29T03:00:00Z"
    },
    {
      "id": 2,
      "episodioId": 2,
      "notaImdb": 8.1,
      "sinopse": "Martha reencontra o seu falecido amante através de um novo serviço que permite que as pessoas mantenham contato com os mortos.",
      "dataEstreia": "2013-02-11T03:00:00Z"
    },
    {
      "id": 3,
      "episodioId": 3,
      "notaImdb": 8.7,
      "sinopse": "Numa estrada deserta, uma viajante se depara com um museu. Na coleção, objetos raros do mundo do crime - e uma chocante atração principal.",
      "dataEstreia": "2017-12-29T03:00:00Z"
    },
    {
      "id": 4,
      "episodioId": 4,
      "notaImdb": 7.3,
      "sinopse": "Em um mundo onde memórias alheias podem ser acessadas, uma arquiteta luta para guardar um terrível segredo e uma investigadora de seguros apura um acidente.",
      "dataEstreia": "2017-12-29T03:00:00Z"
    },
    {
      "id": 5,
      "episodioId": 5,
      "notaImdb": 8.6,
      "sinopse": "No futuro, todos têm acesso a um implante de memória que grava tudo que os seres humanos fazem, veem e ouvem.",
      "dataEstreia": "2011-12-18T03:00:00Z"
    },
    {
      "id": 6,
      "episodioId": 6,
      "notaImdb": 8.2,
      "sinopse": "Após fracassar em um concurso como cantora, uma mulher tem que escolher entre praticar atos humilhantes ou voltar a viver praticamente como escrava.",
      "dataEstreia": "2011-12-11T03:00:00Z"
    },
    {
      "id": 7,
      "episodioId": 7,
      "notaImdb": 8.8,
      "sinopse": "Este aplicativo não só forma casais como prevê a data de validade da relação. Unidos pelo sistema, Frank e Amy decidem questionar sua lógica.",
      "dataEstreia": "2017-12-29T03:00:00Z"
    },
    {
      "id": 8,
      "episodioId": 8,
      "notaImdb": 8.6,
      "sinopse": "Após uma tragédia nas mídias sociais, uma detetive e sua assistente especializada em tecnologia fazem uma descoberta assustadora.",
      "dataEstreia": "2016-12-21T03:00:00Z"
    },
    {
      "id": 9,
      "episodioId": 9,
      "notaImdb": 7.7,
      "sinopse": "Após sua primeira batalha contra um inimigo elusivo, um soldado começa a ter sensações estranhas e sentir pequenas falhas técnicas.",
      "dataEstreia": "2016-12-21T03:00:00Z"
    },
    {
      "id": 10,
      "episodioId": 10,
      "notaImdb": 6.7,
      "sinopse": "À procura de suprimentos em uma terra devastada, eles encontram um inimigo implacável. Agora, fugir é a única saída.",
      "dataEstreia": "2017-12-29T03:00:00Z"
    },
    {
      "id": 11,
      "episodioId": 11,
      "notaImdb": 7.8,
      "sinopse": "O primeiro-ministro Michael Callow enfrenta um chocante dilema quando a amada princesa Susannah é raptada.",
      "dataEstreia": "2011-12-04T03:00:00Z"
    },
    {
      "id": 12,
      "episodioId": 12,
      "notaImdb": 8.3,
      "sinopse": "Uma mulher desesperada para ser notada nas mídias sociais acha que tirou a sorte grande ao ser convidada para um casamento luxuoso, mas nem tudo sai como planejado.",
      "dataEstreia": "2016-10-21T03:00:00Z"
    },
    {
      "id": 13,
      "episodioId": 13,
      "notaImdb": 8.1,
      "sinopse": "Um viajante americano se inscreve para testar um novo sistema de jogo revolucionário, mas descobre que as emoções são mais reais do que imaginava.",
      "dataEstreia": "2016-10-21T03:00:00Z"
    },
    {
      "id": 14,
      "episodioId": 14,
      "notaImdb": 8.7,
      "sinopse": "Em 1987, em uma cidade litorânea, uma jovem tímida e uma garota extrovertida formam uma conexão que parece transcender tempo e espaço.",
      "dataEstreia": "2016-10-21T03:00:00Z"
    },
    {
      "id": 15,
      "episodioId": 15,
      "notaImdb": 8.5,
      "sinopse": "Um jovem tem seu computador invadido e precisa decidir entre obedecer cegamente as ordens dos hackers ou ver sua intimidade exposta para sua família.",
      "dataEstreia": "2016-10-21T03:00:00Z"
    },
    {
      "id": 16,
      "episodioId": 16,
      "notaImdb": 8.3,
      "sinopse": "O Capitão Daly comanda sua nave espacial com coragem e sabedoria. Mas uma nova recruta está prestes a descobrir que as coisas não são exatamente o que parecem.",
      "dataEstreia": "2017-12-29T03:00:00Z"
    },
    {
      "id": 17,
      "episodioId": 17,
      "notaImdb": 6.8,
      "sinopse": "Um comediante fracassado que dubla um urso animado se envolve em uma trama política quando seu personagem se candidata a um cargo público.",
      "dataEstreia": "2013-02-25T03:00:00Z"
    },
    {
      "id": 18,
      "episodioId": 18,
      "notaImdb": 8.1,
      "sinopse": "Victoria acorda e não se lembra de nada sobre a sua vida. Todos que encontra se recusam a falar com ela.",
      "dataEstreia": "2013-02-18T03:00:00Z"
    },
    {
      "id": 19,
      "episodioId": 19,
      "notaImdb": 9.2,
      "sinopse": "Dois homens em uma área gélida e remota contam três histórias sobre descontroles tecnológicos ocorridas na época de Natal.",
      "dataEstreia": "2014-12-16T03:00:00Z"
    }
  ],
  "notas": [
    {
      "nota": 3,
      "episodioId": 17,
      "id": 1
    },
    {
      "nota": 2,
      "episodioId": 19,
      "id": 2
    },
    {
      "nota": 2,
      "episodioId": 2,
      "id": 3
    },
    {
      "nota": 2,
      "episodioId": 4,
      "id": 4
    },
    {
      "nota": 5,
      "episodioId": 15,
      "id": 5
    },
    {
      "nota": 2,
      "episodioId": 13,
      "id": 6
    },
    {
      "nota": 4,
      "episodioId": 10,
      "id": 7
    },
    {
      "nota": 4,
      "episodioId": 15,
      "id": 8
    }
  ]
}